{
 "variants":
 { 
   "variant=copper": { "model": "substratum:oreCopper" },
   "variant=tin": { "model": "substratum:oreTin" },
   "variant=nickel": { "model": "substratum:oreNickel" },
   "variant=zinc": { "model": "substratum:oreZinc" },
   "variant=silver": { "model": "substratum:oreSilver" },
   "variant=lead": { "model": "substratum:oreLead" },
   "variant=platinum": { "model": "substratum:orePlatinum" },
   "variant=alumina": { "model": "substratum:oreAlumina" },
   "variant=chrome": { "model": "substratum:oreChrome" }
  }
}

