{
  "variants":
  {
    "facing=east,half=bottom,shape=straight":  { "model": "substratum:stairsStraightAluminium" },
    "facing=west,half=bottom,shape=straight":  { "model": "substratum:stairsStraightAluminium", "y": 180, "uvlock": true },
    "facing=south,half=bottom,shape=straight": { "model": "substratum:stairsStraightAluminium", "y": 90, "uvlock": true },
    "facing=north,half=bottom,shape=straight": { "model": "substratum:stairsStraightAluminium", "y": 270, "uvlock": true },
    "facing=east,half=bottom,shape=outer_right":  { "model": "substratum:stairsOuterAluminium" },
    "facing=west,half=bottom,shape=outer_right":  { "model": "substratum:stairsOuterAluminium", "y": 180, "uvlock": true },
    "facing=south,half=bottom,shape=outer_right": { "model": "substratum:stairsOuterAluminium", "y": 90, "uvlock": true },
    "facing=north,half=bottom,shape=outer_right": { "model": "substratum:stairsOuterAluminium", "y": 270, "uvlock": true },
    "facing=east,half=bottom,shape=outer_left":  { "model": "substratum:stairsOuterAluminium", "y": 270, "uvlock": true },
    "facing=west,half=bottom,shape=outer_left":  { "model": "substratum:stairsOuterAluminium", "y": 90, "uvlock": true },
    "facing=south,half=bottom,shape=outer_left": { "model": "substratum:stairsOuterAluminium" },
    "facing=north,half=bottom,shape=outer_left": { "model": "substratum:stairsOuterAluminium", "y": 180, "uvlock": true },
    "facing=east,half=bottom,shape=inner_right":  { "model": "substratum:stairsInnerAluminium" },
    "facing=west,half=bottom,shape=inner_right":  { "model": "substratum:stairsInnerAluminium", "y": 180, "uvlock": true },
    "facing=south,half=bottom,shape=inner_right": { "model": "substratum:stairsInnerAluminium", "y": 90, "uvlock": true },
    "facing=north,half=bottom,shape=inner_right": { "model": "substratum:stairsInnerAluminium", "y": 270, "uvlock": true },
    "facing=east,half=bottom,shape=inner_left":  { "model": "substratum:stairsInnerAluminium", "y": 270, "uvlock": true },
    "facing=west,half=bottom,shape=inner_left":  { "model": "substratum:stairsInnerAluminium", "y": 90, "uvlock": true },
    "facing=south,half=bottom,shape=inner_left": { "model": "substratum:stairsInnerAluminium" },
    "facing=north,half=bottom,shape=inner_left": { "model": "substratum:stairsInnerAluminium", "y": 180, "uvlock": true },
    "facing=east,half=top,shape=straight":  { "model": "substratum:stairsStraightAluminium", "x": 180, "uvlock": true },
    "facing=west,half=top,shape=straight":  { "model": "substratum:stairsStraightAluminium", "x": 180, "y": 180, "uvlock": true },
    "facing=south,half=top,shape=straight": { "model": "substratum:stairsStraightAluminium", "x": 180, "y": 90, "uvlock": true },
    "facing=north,half=top,shape=straight": { "model": "substratum:stairsStraightAluminium", "x": 180, "y": 270, "uvlock": true },
    "facing=east,half=top,shape=outer_right":  { "model": "substratum:stairsOuterAluminium", "x": 180, "uvlock": true },
    "facing=west,half=top,shape=outer_right":  { "model": "substratum:stairsOuterAluminium", "x": 180, "y": 180, "uvlock": true },
    "facing=south,half=top,shape=outer_right": { "model": "substratum:stairsOuterAluminium", "x": 180, "y": 90, "uvlock": true },
    "facing=north,half=top,shape=outer_right": { "model": "substratum:stairsOuterAluminium", "x": 180, "y": 270, "uvlock": true },
    "facing=east,half=top,shape=outer_left":  { "model": "substratum:stairsOuterAluminium", "x": 180, "y": 90, "uvlock": true },
    "facing=west,half=top,shape=outer_left":  { "model": "substratum:stairsOuterAluminium", "x": 180, "y": 270, "uvlock": true },
    "facing=south,half=top,shape=outer_left": { "model": "substratum:stairsOuterAluminium", "x": 180, "y": 180, "uvlock": true },
    "facing=north,half=top,shape=outer_left": { "model": "substratum:stairsOuterAluminium", "x": 180, "uvlock": true },
    "facing=east,half=top,shape=inner_right":  { "model": "substratum:stairsInnerAluminium", "x": 180, "uvlock": true },
    "facing=west,half=top,shape=inner_right":  { "model": "substratum:stairsInnerAluminium", "x": 180, "y": 180, "uvlock": true },
    "facing=south,half=top,shape=inner_right": { "model": "substratum:stairsInnerAluminium", "x": 180, "y": 90, "uvlock": true },
    "facing=north,half=top,shape=inner_right": { "model": "substratum:stairsInnerAluminium", "x": 180, "y": 270, "uvlock": true },
    "facing=east,half=top,shape=inner_left":  { "model": "substratum:stairsInnerAluminium", "x": 180, "y": 90, "uvlock": true },
    "facing=west,half=top,shape=inner_left":  { "model": "substratum:stairsInnerAluminium", "x": 180, "y": 270, "uvlock": true },
    "facing=south,half=top,shape=inner_left": { "model": "substratum:stairsInnerAluminium", "x": 180, "y": 180, "uvlock": true },
    "facing=north,half=top,shape=inner_left": { "model": "substratum:stairsInnerAluminium", "x": 180, "uvlock": true }
  }
}
