{
   "parent": "minecraft:block/half_slab",
   "textures":
   {
     "bottom": "substratum:blocks/blockLumium",
     "top": "substratum:blocks/blockLumium",
     "side": "substratum:blocks/slabLumium"
  }
}
