{
   "parent": "minecraft:block/half_slab",
   "textures":
   {
     "bottom": "substratum:blocks/blockSilver",
     "top": "substratum:blocks/blockSilver",
     "side": "substratum:blocks/slabSilver"
  }
}
