{
   "parent": "minecraft:block/half_slab",
   "textures":
   {
     "bottom": "minecraft:blocks/gold_block",
     "top": "minecraft:blocks/gold_block",
     "side": "substratum:blocks/slabGold"
  }
}
