{
   "parent": "minecraft:block/half_slab",
   "textures":
   {
     "bottom": "substratum:blocks/blockCopper",
     "top": "substratum:blocks/blockCopper",
     "side": "substratum:blocks/slabCopper"
  }
}
