{
   "parent": "minecraft:block/half_slab",
   "textures":
   {
     "bottom": "substratum:blocks/blockSignalum",
     "top": "substratum:blocks/blockSignalum",
     "side": "substratum:blocks/slabSignalum"
  }
}
