{
  "parent": "minecraft:block/inner_stairs",
  "textures":
  {
    "bottom": "substratum:blocks/blockBrass",
    "top": "substratum:blocks/blockBrass",
    "side": "substratum:blocks/blockBrass"
  }
}
