{
  "parent": "minecraft:block/stairs",
  "textures":
  {
    "bottom": "substratum:blocks/blockSignalum",
    "top": "substratum:blocks/blockSignalum",
    "side": "substratum:blocks/blockSignalum"
  }
}
