{
  "parent": "minecraft:block/outer_stairs",
  "textures":
  {
    "bottom": "substratum:blocks/blockNickel",
    "top": "substratum:blocks/blockNickel",
    "side": "substratum:blocks/blockNickel"
  }
}
